OSUN R Users Community
…
---

### {inspectdf}

```r
# Grouped dataframe summary
starwars %>% group_by(species) %>% inspect_cat()
```

```
## # A tibble: 266 x 6
## # Groups:   species [38]
##    species  col_name     cnt common        common_pcnt levels          
##    <chr>    <chr>      <int> <chr>               <dbl> <named list>    
##  1 Aleena   eye_color      1 unknown               100 <tibble [1 x 3]>
##  2 Aleena   gender         1 masculine             100 <tibble [1 x 3]>
##  3 Aleena   hair_color     1 none                  100 <tibble [1 x 3]>
##  4 Aleena   homeworld      1 Aleen Minor           100 <tibble [1 x 3]>
##  5 Aleena   name           1 Ratts Tyerell         100 <tibble [1 x 3]>
##  6 Aleena   sex            1 male                  100 <tibble [1 x 3]>
##  7 Aleena   skin_color     1 grey, blue            100 <tibble [1 x 3]>
##  8 Besalisk eye_color      1 yellow                100 <tibble [1 x 3]>
##  9 Besalisk gender         1 masculine             100 <tibble [1 x 3]>
## 10 Besalisk hair_color     1 none                  100 <tibble [1 x 3]>
## # ... with 256 more rows
```
…
